{"page":1,"total_results":10000,"total_pages":500,"results":[{"popularity":3.853,"vote_count":3,"video":false,"poster_path":"\/4egSeI3qLvY22lHn4yIDrrU0ZNF.jpg","id":711542,"adult":false,"backdrop_path":"\/tPcyfivtIbRosOaBlUrQMpOA0Zv.jpg","original_language":"en","original_title":"Final Frequency","genre_ids":[878,53],"title":"Final Frequency","vote_average":6,"overview":"A PhD student investigates unusual seismic activity in Los Angeles, leading to a cabal of elitist scientists, who plan to weaponize Nikola Tesla's most secret research to manipulate thought patterns and earthquakes.","release_date":"2020-09-03"},{"popularity":152.69,"vote_count":32,"video":false,"poster_path":"\/gxK2lB1w8an5ViPXzisDsRsyHr0.jpg","id":400160,"adult":false,"backdrop_path":"\/bt4xA9WZE9P1wiRILRFt0Zh2wmV.jpg","original_language":"en","original_title":"The SpongeBob Movie: Sponge on the Run","genre_ids":[12,16,35,14,10751],"title":"The SpongeBob Movie: Sponge on the Run","vote_average":6.6,"overview":"After SpongeBob's beloved pet snail Gary is snail-napped, he and Patrick embark on an epic adventure to The Lost City of Atlantic City to bring Gary home.","release_date":"2020-08-14"},{"popularity":12.153,"vote_count":0,"video":false,"poster_path":"\/f7a4R6XImrkc4qMhi9aWsTEu7li.jpg","id":616180,"adult":false,"backdrop_path":"\/gq9FvopuQeGs6TKljGghefC14uD.jpg","original_language":"de","original_title":"Jim Knopf und die Wilde 13","genre_ids":[12,14,10751],"title":"Jim Button and the Wild 13","vote_average":0,"overview":"","release_date":"2020-10-08"},{"popularity":2.542,"vote_count":0,"video":false,"poster_path":"\/rmjYo2HpxxkAwStPCEk0WO0647A.jpg","id":746721,"adult":false,"backdrop_path":null,"original_language":"en","original_title":"Barakat","genre_ids":[35,18],"title":"Barakat","vote_average":0,"overview":"An aging matriarch aims to bring together her fractured, dysfunctional family over Eid-al-Fitr to break the news about her new romance.","release_date":"2021-05-28"},{"popularity":139.601,"vote_count":0,"video":false,"poster_path":"\/4q2hz2m8hubgvijz8Ez0T2Os2Yv.jpg","id":520763,"adult":false,"backdrop_path":"\/z2UtGA1WggESspi6KOXeo66lvLx.jpg","original_language":"en","original_title":"A Quiet Place Part II","genre_ids":[18,878,53],"title":"A Quiet Place Part II","vote_average":0,"overview":"Following the events at home, the Abbott family now face the terrors of the outside world. Forced to venture into the unknown, they realize that the creatures that hunt by sound are not the only threats that lurk beyond the sand path.","release_date":"2021-04-21"},{"popularity":9.292,"vote_count":0,"video":false,"poster_path":"\/4X1l9jfwHPXcuimvp1PoPdiNNzz.jpg","id":600354,"adult":false,"backdrop_path":"\/tzm0qUH5fL01BtPazpksCtVaDcf.jpg","original_language":"en","original_title":"The Father","genre_ids":[18],"title":"The Father","vote_average":0,"overview":"A man refuses all assistance from his daughter as he ages. As he tries to make sense of his changing circumstances, he begins to doubt his loved ones, his own mind and even the fabric of his reality.","release_date":"2020-12-18"},{"popularity":13.222,"vote_count":0,"video":false,"poster_path":"\/h9oX5X26UpGcqQ0Pmo1aqyq2qtB.jpg","id":458576,"adult":false,"backdrop_path":"\/8tNX8s3j1O0eqilOQkuroRLyOZA.jpg","original_language":"en","original_title":"Monster Hunter","genre_ids":[28,12,14],"title":"Monster Hunter","vote_average":0,"overview":"Behind our world, there is another — a world of dangerous and powerful monsters that rule their domain with deadly ferocity. When Lt. Artemis and her loyal soldiers are transported from our world to the new world, the unflappable lieutenant receives the shock of her life. In her desperate battle for survival against enormous enemies with incredible powers and unstoppable, terrifying attacks, Artemis will team up with a mysterious man who has found a way to fight back.","release_date":"2020-12-11"},{"popularity":0.995,"vote_count":0,"video":false,"poster_path":null,"id":649038,"adult":false,"backdrop_path":null,"original_language":"cs","original_title":"Největší dar","genre_ids":[14,10751],"title":"The Greatest Gift","vote_average":0,"overview":"In ancient times, our land was ruled by pagan gods and goddesses. But what happens when they start getting involved in people's lives and vice versa? Will Morena, the goddess of winter, win, or will she be defeated by the goddesses of spring, summer and autumn?","release_date":"2021-04-08"},{"popularity":5.614,"vote_count":26,"video":false,"poster_path":"\/fRIBlFJiMNm7DkphQgcHgDS2Pvx.jpg","id":348672,"adult":false,"backdrop_path":"\/dQgqxHUdcNSmhiM4zebekZnnUII.jpg","original_language":"sv","original_title":"Om det oändliga","genre_ids":[35,18],"title":"About Endlessness","vote_average":6.6,"overview":"Inspired by “One Thousand and One Nights,” the celebrated collection of Middle Eastern and Indian folk tales, “About Endlessness,” in its juxtaposition of tableaux capturing moments in life, explores the preciousness and beauty of our existence, awakening in us the wish to maintain this eternal treasure and pass it on.","release_date":"2019-11-15"},{"popularity":11.664,"id":568467,"video":false,"vote_count":0,"vote_average":0,"title":"Ammonite","release_date":"2020-11-13","original_language":"en","original_title":"Ammonite","genre_ids":[10749,18],"backdrop_path":"\/teQHOFiGWGqwo5En4GRyZuWZ22P.jpg","adult":false,"overview":"In 1840s England, palaeontologist Mary Anning and a young woman sent by her husband to convalesce by the sea develop an intense relationship. Despite the chasm between their social spheres and personalities, Mary and Charlotte discover they can each offer what the other has been searching for: the realisation that they are not alone. It is the beginning of a passionate and all-consuming love affair that will defy all social bounds and alter the course of both lives irrevocably.","poster_path":"\/5lx4pUHWZoOKJWsVsvurRRNW9FK.jpg"},{"popularity":4.039,"id":726220,"video":false,"vote_count":0,"vote_average":0,"title":"Beans","release_date":"2021-03-30","original_language":"en","original_title":"Beans","genre_ids":[18],"backdrop_path":null,"adult":false,"overview":"Twelve-year-old Beans is on the edge: torn between innocent childhood and reckless adolescence; forced to grow up fast and become the tough Mohawk warrior she needs to be during the Oka Crisis, the turbulent Indigenous uprising that tore Quebec and Canada apart for 78 tense days in the summer of 1990.","poster_path":"\/vAbN8l4oFFdBeWUZFEjRO0VlRWF.jpg"},{"popularity":1.61,"vote_count":0,"video":false,"poster_path":"\/hJliDia9p4kLo58FfXus9yUZqjP.jpg","id":712113,"adult":false,"backdrop_path":"\/rzJAVpFXFl9EF7U20oDXiFQVjws.jpg","original_language":"fr","original_title":"A Good Man","genre_ids":[18],"title":"A Good Man","vote_average":0,"overview":"Benjamin and Aude have loved each other for 7 years. They live together on a small island in Brittany. Benjamin dreams of starting a family but the couple learns that Aude is sterile. So Benjamin has an idea. He is the one who will bear their child because before being Benjamin, his name was Sarah.","release_date":"2021-03-03"},{"popularity":6.178,"vote_count":0,"video":false,"poster_path":"\/xDrx4PlciHjinNKm4pkF3oGrm6.jpg","id":599960,"adult":false,"backdrop_path":"\/jkbWLM5lUAjaCdGuOWQlwcaEwfp.jpg","original_language":"en","original_title":"French Exit","genre_ids":[35,18],"title":"French Exit","vote_average":0,"overview":"A socialite is decamping from Manhattan to Paris to live out her days after her dead husband’s fortune runs out. She cashes out whatever is left and goes with her son and her cat, who happens to be the embodiment of her long-dead partner.","release_date":"2021-02-21"},{"popularity":6.643,"id":522241,"video":false,"vote_count":0,"vote_average":0,"title":"The Courier","release_date":"2021-02-18","original_language":"en","original_title":"The Courier","genre_ids":[18,53],"backdrop_path":null,"adult":false,"overview":"Cold War spy Greville Wynne and his Russian source try to put an end to the Cuban Missile Crisis.","poster_path":null},{"popularity":11.294,"vote_count":0,"video":false,"poster_path":"\/wDDXhDSCJZQJ5hO0m6wE2UQhDUh.jpg","id":581734,"adult":false,"backdrop_path":"\/tlKHtgVgg78uRd8V0q7cGG4Cwjp.jpg","original_language":"en","original_title":"Nomadland","genre_ids":[18],"title":"Nomadland","vote_average":0,"overview":"A woman in her sixties embarks on a journey through the American West after losing everything in the Great Recession, living as a van-dwelling modern-day nomad.","release_date":"2020-11-30"},{"popularity":0.946,"vote_count":0,"video":false,"poster_path":null,"id":702308,"adult":false,"backdrop_path":null,"original_language":"en","original_title":"Women in Blue","genre_ids":[99],"title":"Women in Blue","vote_average":0,"overview":"Following three female police officers in Minneapolis, Women in Blue charts their progress and efforts to remake the department to become more inclusive. When the killing of Justine Damond results in the resignation of Chief Harteau, it threatens the gains women have made in the department.","release_date":"2020-04-15"},{"popularity":16.468,"id":554761,"video":false,"vote_count":1,"vote_average":6,"title":"Falling","release_date":"2020-10-02","original_language":"en","original_title":"Falling","genre_ids":[18],"backdrop_path":"\/raQlZMmshHztuEPeLXq7zDEHa73.jpg","adult":false,"overview":"John Peterson lives with his partner Eric and their adopted daughter in Southern California. When he is visited by his aging father Willis from Los Angeles who is searching for a place to retire, their two very different worlds collide.","poster_path":"\/x1W0y61gDv3gcc0E5NDoM0rclTu.jpg"},{"popularity":2.409,"id":667935,"video":false,"vote_count":0,"vote_average":0,"title":"There Is No Evil","release_date":"2021-02-11","original_language":"fa","original_title":"Sheytan vojud nadarad","genre_ids":[18],"backdrop_path":"\/2F4pP7Fj72TARYmq8uRqOseR2aR.jpg","adult":false,"overview":"Heshmat, an exemplary husband and father, gets up very early every day. Where does he go? Pouya cannot imagine killing another man, yet he is told he must do so. Javad doesn’t know that proposing to his beloved won’t be the only surprise on her birthday. Bahram is a physician but is unable to practice medicine. He has decided to explain to his visiting niece the reason for his life as an outcast.","poster_path":"\/lzmvvtI9pKBBcJQ6Sck8yX8OtfO.jpg"},{"popularity":1.335,"vote_count":0,"video":false,"poster_path":"\/2S2Teehq6yds1mqpSuwKHqAF3Ez.jpg","id":728882,"adult":false,"backdrop_path":"\/k29768dIYqNGBw5yYgR8dUVxP6L.jpg","original_language":"ja","original_title":"すばらしき世界","genre_ids":[18],"title":"Under the Open Sky","vote_average":0,"overview":"Mikami, an ex-yakuza of middle age with most of his life in prison, gets released after serving 13 years of sentence for murder. Hoping to find his long lost mother, from whom he was separated as a child, he applies for a TV show and meets a young TV director Tsunoda. Meanwhile, he struggles to get a proper job and fit into society. His impulsive, adamant nature and ingrained beliefs cause friction in his relationship with Tsunoda and those who want to help him.","release_date":"2021-02-11"},{"popularity":11.594,"vote_count":0,"video":false,"poster_path":"\/bqIUrgUfFYS62Dnyxn9KTLhSVWl.jpg","id":581032,"adult":false,"backdrop_path":null,"original_language":"en","original_title":"News of the World","genre_ids":[18,37],"title":"News of the World","vote_average":0,"overview":"A Texan traveling across the wild West bringing the news of the world to local townspeople, agrees to help rescue a young girl who was kidnapped.","release_date":"2020-12-25"}]}